{
  "en": {
    "MOVIE_INPUT": "{type, select, title {M} other {m}}ovie/Series title",
    "TWITTER_INPUT": "{type, select, title {T} other {t}}witter username",
    "PERFORM_BUTTON": "{type, select, title {P} other {p}}erform analysis",
    "MAIN_DESCRIPTION": "{type, select, title {W} other {w}}elcome to the system, please introduce the title of some series or original movie of Netflix as well as him username (e.g. @username) in Twitter to perform an analysis in the last comments its from him",
    "EXAMPLE_MOVIE": "{type, select, title {S} other {s}}tranger things",
    "EXAMPLE_TWITTER_USER": "{type, select, title {@} other {@}}Stranger_Things",
    "RESULT_ANALYSIS": "{type, select, title {A} other {a}}nalysis result",
    "SUMMARY": "{type, select, title {S} other {s}ummary}",
    "DETAILS": "{type, select, title {D} other {d}}etails",
    "ACTORS": "{type, select, title {A} other {a}}ctor(s)",
    "GENRES": "{type, select, title {G} other {g}}enre(s)",
    "DIRECTORS": "{type, select, title {D} other {d}}irector(s)",
    "RATINGS": "{type, select, title {R} other {r}}atings",
    "PERFORM_AGAIN": "{type, select, title {P} other {p}}erform again",
    "LAST_COMMENTS": "{type, select, title {L} other {l}}ast comments",
    "POSITIVE": "{type, select, title {P} other {p}}ositive",
    "NEUTRAL": "{type, select, title {N} other {n}}eutral",
    "NEGATIVE": "{type, select, title {N} other {n}}egative",
    "TOTAL_REVIEWS": "{type, select, title {T} other {t}}otal analyzed",
    "SOFTWARE_ARCHITECTURE": "{type, select, title {S} other {s}}oftware Architecture",
    "MICROSERVICES_PATTERN": "{type, select, title {M} other {m}}icroservices Pattern",
    "UNIVERSITY": "{type, select, title {U} other {u}}niversity Autonomous of Zacatecas",
    "LOADING_MOVIE_INFORMATION": "{type, select, title {L} other {l}}oading information...",
    "RETRIEVING_MOVIE_TWEETS": "{type, select, title {R} other {r}}etrieving tweets...",
    "ANALYZING_TWEETS": "{type, select, title {A} other {a}}nalizando tweets..."
  },
  "es": {
    "MOVIE_INPUT": "{type, select, title {T} other {t}}ítulo de la película o serie",
    "TWITTER_INPUT": "{type, select, title {U} other {u}}suario de twitter",
    "PERFORM_BUTTON": "{type, select, title {R} other {r}}ealizar análisis",
    "MAIN_DESCRIPTION": "{type, select, title {B} other {b}}ienvenido al sistema, por favor introduce el título de alguna película o serie original de Netflix así como su usuario en Twitter para realizar un análisis de los últimos comentarios al respecto",
    "EXAMPLE_MOVIE": "{type, select, title {S} other {s}}tranger things",
    "EXAMPLE_TWITTER_USER": "{type, select, title {@} other {@}}Stranger_Things",
    "RESULT_ANALYSIS": "{type, select, title {R} other {r}}esultado del análisis",
    "SUMMARY": "{type, select, title {R} other {r}}esumen",
    "DETAILS": "{type, select, title {D} other {d}}etalles",
    "ACTORS": "{type, select, title {A} other {a}}ctor(es)",
    "GENRES": "{type, select, title {G} other {g}}énero(s)",
    "DIRECTORS": "{type, select, title {D} other {d}}irector(es)",
    "RATINGS": "{type, select, title {O} other {o}}piniones",
    "PERFORM_AGAIN": "{type, select, title {A} other {a}}nalizar de nuevo",
    "LAST_COMMENTS": "{type, select, title {Ú} other {ú}}ltimos comentarios",
    "POSITIVE": "{type, select, title {P} other {p}}ositivos",
    "NEUTRAL": "{type, select, title {N} other {n}}eutrales",
    "NEGATIVE": "{type, select, title {N} other {n}}egativos",
    "TOTAL_REVIEWS": "{type, select, title {C} other {c}}omentarios analizados",
    "SOFTWARE_ARCHITECTURE": "{type, select, title {A} other {a}}rquitectura de Software",
    "MICROSERVICES_PATTERN": "{type, select, title {P} other {p}}atrón de Microservicios",
    "UNIVERSITY": "{type, select, title {U} other {u}}niversidad Autónoma de Zacatecas",
    "LOADING_MOVIE_INFORMATION": "{type, select, title {C} other {c}}argando información...",
    "RETRIEVING_MOVIE_TWEETS": "{type, select, title {R} other {r}}ecuperando tweets...",
    "ANALYZING_TWEETS": "{type, select, title {A} other {a}}nalizando tweets..."
  }
}